%YAML 1.1
%TAG !u! tag:unity3d.com,2011:
--- !u!1001 &4463493625730291099
PrefabInstance:
  m_ObjectHideFlags: 0
  serializedVersion: 2
  m_Modification:
    m_TransformParent: {fileID: 0}
    m_Modifications:
    - target: {fileID: 4667849845226022384, guid: bf74ab1ac6a82564ba04c8ed8ffb83f4, type: 3}
      propertyPath: m_Materials.Array.data[0]
      value: 
      objectReference: {fileID: 2100000, guid: 9995fc16165afef4fa508b9a6ab5fc56, type: 2}
    - target: {fileID: 6035756127474070890, guid: bf74ab1ac6a82564ba04c8ed8ffb83f4, type: 3}
      propertyPath: m_Name
      value: Body 7
      objectReference: {fileID: 0}
    - target: {fileID: 6379490247499771856, guid: bf74ab1ac6a82564ba04c8ed8ffb83f4, type: 3}
      propertyPath: m_RootOrder
      value: 0
      objectReference: {fileID: 0}
    - target: {fileID: 6379490247499771856, guid: bf74ab1ac6a82564ba04c8ed8ffb83f4, type: 3}
      propertyPath: m_LocalPosition.x
      value: 0
      objectReference: {fileID: 0}
    - target: {fileID: 6379490247499771856, guid: bf74ab1ac6a82564ba04c8ed8ffb83f4, type: 3}
      propertyPath: m_LocalPosition.y
      value: 0
      objectReference: {fileID: 0}
    - target: {fileID: 6379490247499771856, guid: bf74ab1ac6a82564ba04c8ed8ffb83f4, type: 3}
      propertyPath: m_LocalPosition.z
      value: 0
      objectReference: {fileID: 0}
    - target: {fileID: 6379490247499771856, guid: bf74ab1ac6a82564ba04c8ed8ffb83f4, type: 3}
      propertyPath: m_LocalRotation.w
      value: 1
      objectReference: {fileID: 0}
    - target: {fileID: 6379490247499771856, guid: bf74ab1ac6a82564ba04c8ed8ffb83f4, type: 3}
      propertyPath: m_LocalRotation.x
      value: -0
      objectReference: {fileID: 0}
    - target: {fileID: 6379490247499771856, guid: bf74ab1ac6a82564ba04c8ed8ffb83f4, type: 3}
      propertyPath: m_LocalRotation.y
      value: -0
      objectReference: {fileID: 0}
    - target: {fileID: 6379490247499771856, guid: bf74ab1ac6a82564ba04c8ed8ffb83f4, type: 3}
      propertyPath: m_LocalRotation.z
      value: -0
      objectReference: {fileID: 0}
    - target: {fileID: 6379490247499771856, guid: bf74ab1ac6a82564ba04c8ed8ffb83f4, type: 3}
      propertyPath: m_LocalEulerAnglesHint.x
      value: 0
      objectReference: {fileID: 0}
    - target: {fileID: 6379490247499771856, guid: bf74ab1ac6a82564ba04c8ed8ffb83f4, type: 3}
      propertyPath: m_LocalEulerAnglesHint.y
      value: 0
      objectReference: {fileID: 0}
    - target: {fileID: 6379490247499771856, guid: bf74ab1ac6a82564ba04c8ed8ffb83f4, type: 3}
      propertyPath: m_LocalEulerAnglesHint.z
      value: 0
      objectReference: {fileID: 0}
    m_RemovedComponents: []
  m_SourcePrefab: {fileID: 100100000, guid: bf74ab1ac6a82564ba04c8ed8ffb83f4, type: 3}
