%YAML 1.1
%TAG !u! tag:unity3d.com,2011:
--- !u!1001 &75193619059076650
PrefabInstance:
  m_ObjectHideFlags: 0
  serializedVersion: 2
  m_Modification:
    m_TransformParent: {fileID: 0}
    m_Modifications:
    - target: {fileID: 2339743375119266952, guid: 19cd9b804fbb18b4083c1cf68775e5b4, type: 3}
      propertyPath: m_Name
      value: Body 2
      objectReference: {fileID: 0}
    - target: {fileID: 3113008344709656114, guid: 19cd9b804fbb18b4083c1cf68775e5b4, type: 3}
      propertyPath: m_RootOrder
      value: 0
      objectReference: {fileID: 0}
    - target: {fileID: 3113008344709656114, guid: 19cd9b804fbb18b4083c1cf68775e5b4, type: 3}
      propertyPath: m_LocalPosition.x
      value: 0
      objectReference: {fileID: 0}
    - target: {fileID: 3113008344709656114, guid: 19cd9b804fbb18b4083c1cf68775e5b4, type: 3}
      propertyPath: m_LocalPosition.y
      value: 0
      objectReference: {fileID: 0}
    - target: {fileID: 3113008344709656114, guid: 19cd9b804fbb18b4083c1cf68775e5b4, type: 3}
      propertyPath: m_LocalPosition.z
      value: 0
      objectReference: {fileID: 0}
    - target: {fileID: 3113008344709656114, guid: 19cd9b804fbb18b4083c1cf68775e5b4, type: 3}
      propertyPath: m_LocalRotation.w
      value: 1
      objectReference: {fileID: 0}
    - target: {fileID: 3113008344709656114, guid: 19cd9b804fbb18b4083c1cf68775e5b4, type: 3}
      propertyPath: m_LocalRotation.x
      value: -0
      objectReference: {fileID: 0}
    - target: {fileID: 3113008344709656114, guid: 19cd9b804fbb18b4083c1cf68775e5b4, type: 3}
      propertyPath: m_LocalRotation.y
      value: -0
      objectReference: {fileID: 0}
    - target: {fileID: 3113008344709656114, guid: 19cd9b804fbb18b4083c1cf68775e5b4, type: 3}
      propertyPath: m_LocalRotation.z
      value: -0
      objectReference: {fileID: 0}
    - target: {fileID: 3113008344709656114, guid: 19cd9b804fbb18b4083c1cf68775e5b4, type: 3}
      propertyPath: m_LocalEulerAnglesHint.x
      value: 0
      objectReference: {fileID: 0}
    - target: {fileID: 3113008344709656114, guid: 19cd9b804fbb18b4083c1cf68775e5b4, type: 3}
      propertyPath: m_LocalEulerAnglesHint.y
      value: 0
      objectReference: {fileID: 0}
    - target: {fileID: 3113008344709656114, guid: 19cd9b804fbb18b4083c1cf68775e5b4, type: 3}
      propertyPath: m_LocalEulerAnglesHint.z
      value: 0
      objectReference: {fileID: 0}
    - target: {fileID: 6653698385727260784, guid: 19cd9b804fbb18b4083c1cf68775e5b4, type: 3}
      propertyPath: m_Materials.Array.data[0]
      value: 
      objectReference: {fileID: 2100000, guid: 9995fc16165afef4fa508b9a6ab5fc56, type: 2}
    m_RemovedComponents: []
  m_SourcePrefab: {fileID: 100100000, guid: 19cd9b804fbb18b4083c1cf68775e5b4, type: 3}
