%YAML 1.1
%TAG !u! tag:unity3d.com,2011:
--- !u!1001 &3020329479423992746
PrefabInstance:
  m_ObjectHideFlags: 0
  serializedVersion: 2
  m_Modification:
    m_TransformParent: {fileID: 0}
    m_Modifications:
    - target: {fileID: 3443940669684973782, guid: 7cde402bb92287f47b5045578718235b, type: 3}
      propertyPath: m_Materials.Array.data[0]
      value: 
      objectReference: {fileID: 2100000, guid: c57b240086463b4429fd9cd66cfae658, type: 2}
    - target: {fileID: 6106203661223940081, guid: 7cde402bb92287f47b5045578718235b, type: 3}
      propertyPath: m_RootOrder
      value: 0
      objectReference: {fileID: 0}
    - target: {fileID: 6106203661223940081, guid: 7cde402bb92287f47b5045578718235b, type: 3}
      propertyPath: m_LocalPosition.x
      value: 0
      objectReference: {fileID: 0}
    - target: {fileID: 6106203661223940081, guid: 7cde402bb92287f47b5045578718235b, type: 3}
      propertyPath: m_LocalPosition.y
      value: 0
      objectReference: {fileID: 0}
    - target: {fileID: 6106203661223940081, guid: 7cde402bb92287f47b5045578718235b, type: 3}
      propertyPath: m_LocalPosition.z
      value: 0
      objectReference: {fileID: 0}
    - target: {fileID: 6106203661223940081, guid: 7cde402bb92287f47b5045578718235b, type: 3}
      propertyPath: m_LocalRotation.w
      value: 1
      objectReference: {fileID: 0}
    - target: {fileID: 6106203661223940081, guid: 7cde402bb92287f47b5045578718235b, type: 3}
      propertyPath: m_LocalRotation.x
      value: -0
      objectReference: {fileID: 0}
    - target: {fileID: 6106203661223940081, guid: 7cde402bb92287f47b5045578718235b, type: 3}
      propertyPath: m_LocalRotation.y
      value: -0
      objectReference: {fileID: 0}
    - target: {fileID: 6106203661223940081, guid: 7cde402bb92287f47b5045578718235b, type: 3}
      propertyPath: m_LocalRotation.z
      value: -0
      objectReference: {fileID: 0}
    - target: {fileID: 6106203661223940081, guid: 7cde402bb92287f47b5045578718235b, type: 3}
      propertyPath: m_LocalEulerAnglesHint.x
      value: 0
      objectReference: {fileID: 0}
    - target: {fileID: 6106203661223940081, guid: 7cde402bb92287f47b5045578718235b, type: 3}
      propertyPath: m_LocalEulerAnglesHint.y
      value: 0
      objectReference: {fileID: 0}
    - target: {fileID: 6106203661223940081, guid: 7cde402bb92287f47b5045578718235b, type: 3}
      propertyPath: m_LocalEulerAnglesHint.z
      value: 0
      objectReference: {fileID: 0}
    - target: {fileID: 6914792670216918347, guid: 7cde402bb92287f47b5045578718235b, type: 3}
      propertyPath: m_Name
      value: Body 22
      objectReference: {fileID: 0}
    m_RemovedComponents: []
  m_SourcePrefab: {fileID: 100100000, guid: 7cde402bb92287f47b5045578718235b, type: 3}
