%YAML 1.1
%TAG !u! tag:unity3d.com,2011:
--- !u!1001 &4883861689582084149
PrefabInstance:
  m_ObjectHideFlags: 0
  serializedVersion: 2
  m_Modification:
    m_TransformParent: {fileID: 0}
    m_Modifications:
    - target: {fileID: 2515907049398505179, guid: d30be4996d1d2164e81abdfb92e33c7e, type: 3}
      propertyPath: m_Materials.Array.data[0]
      value: 
      objectReference: {fileID: 2100000, guid: 7f6fb6d1b91f94b4b8bdfcfd81622703, type: 2}
    - target: {fileID: 5817258893345941557, guid: d30be4996d1d2164e81abdfb92e33c7e, type: 3}
      propertyPath: m_Name
      value: Body 8
      objectReference: {fileID: 0}
    - target: {fileID: 6625039731500364431, guid: d30be4996d1d2164e81abdfb92e33c7e, type: 3}
      propertyPath: m_RootOrder
      value: 0
      objectReference: {fileID: 0}
    - target: {fileID: 6625039731500364431, guid: d30be4996d1d2164e81abdfb92e33c7e, type: 3}
      propertyPath: m_LocalPosition.x
      value: 0
      objectReference: {fileID: 0}
    - target: {fileID: 6625039731500364431, guid: d30be4996d1d2164e81abdfb92e33c7e, type: 3}
      propertyPath: m_LocalPosition.y
      value: 0
      objectReference: {fileID: 0}
    - target: {fileID: 6625039731500364431, guid: d30be4996d1d2164e81abdfb92e33c7e, type: 3}
      propertyPath: m_LocalPosition.z
      value: 0
      objectReference: {fileID: 0}
    - target: {fileID: 6625039731500364431, guid: d30be4996d1d2164e81abdfb92e33c7e, type: 3}
      propertyPath: m_LocalRotation.w
      value: 1
      objectReference: {fileID: 0}
    - target: {fileID: 6625039731500364431, guid: d30be4996d1d2164e81abdfb92e33c7e, type: 3}
      propertyPath: m_LocalRotation.x
      value: -0
      objectReference: {fileID: 0}
    - target: {fileID: 6625039731500364431, guid: d30be4996d1d2164e81abdfb92e33c7e, type: 3}
      propertyPath: m_LocalRotation.y
      value: -0
      objectReference: {fileID: 0}
    - target: {fileID: 6625039731500364431, guid: d30be4996d1d2164e81abdfb92e33c7e, type: 3}
      propertyPath: m_LocalRotation.z
      value: -0
      objectReference: {fileID: 0}
    - target: {fileID: 6625039731500364431, guid: d30be4996d1d2164e81abdfb92e33c7e, type: 3}
      propertyPath: m_LocalEulerAnglesHint.x
      value: 0
      objectReference: {fileID: 0}
    - target: {fileID: 6625039731500364431, guid: d30be4996d1d2164e81abdfb92e33c7e, type: 3}
      propertyPath: m_LocalEulerAnglesHint.y
      value: 0
      objectReference: {fileID: 0}
    - target: {fileID: 6625039731500364431, guid: d30be4996d1d2164e81abdfb92e33c7e, type: 3}
      propertyPath: m_LocalEulerAnglesHint.z
      value: 0
      objectReference: {fileID: 0}
    m_RemovedComponents: []
  m_SourcePrefab: {fileID: 100100000, guid: d30be4996d1d2164e81abdfb92e33c7e, type: 3}
