%YAML 1.1
%TAG !u! tag:unity3d.com,2011:
--- !u!114 &11400000
MonoBehaviour:
  m_ObjectHideFlags: 0
  m_CorrespondingSourceObject: {fileID: 0}
  m_PrefabInstance: {fileID: 0}
  m_PrefabAsset: {fileID: 0}
  m_GameObject: {fileID: 0}
  m_Enabled: 1
  m_EditorHideFlags: 0
  m_Script: {fileID: 11500000, guid: 36a380550eba0984ca43fed57ebc479c, type: 3}
  m_Name: CommentImage
  m_EditorClassIdentifier: 
  images:
  - {fileID: 21300000, guid: c427e14ebe8dd294b98e82206a919a0d, type: 3}
  - {fileID: 21300000, guid: 7b7198034c6ab8040be45fecb2ac44ab, type: 3}
  - {fileID: 21300000, guid: d9c0504446623c14aa196950b7f5eef9, type: 3}
  - {fileID: 21300000, guid: b9108836e9992df45a08579efa1faf09, type: 3}
  - {fileID: 21300000, guid: 1487a9ce8a216f44b90c19b3c83a0e03, type: 3}
  - {fileID: 21300000, guid: c2574a0cffa2965459174328cf491d73, type: 3}
  - {fileID: 21300000, guid: 9b6368923bee3fb42ad216e963dce0b2, type: 3}
  - {fileID: 21300000, guid: 23310aaa11d7d114fb4ce90b0d924aec, type: 3}
  - {fileID: 21300000, guid: 42653bd2611592240a19ae14d69d8eaf, type: 3}
  - {fileID: 21300000, guid: 331733d9229882f49851ba35fdc8ce01, type: 3}
  - {fileID: 21300000, guid: 16695e8f060a7674eb5b3699ea6893ac, type: 3}
  - {fileID: 21300000, guid: ca540bd69284c0f4c972b77c3c0cadc5, type: 3}
  - {fileID: 21300000, guid: 251b3d6badc0ad84d8f3b47bfd69b750, type: 3}
  - {fileID: 21300000, guid: 470cfdf8b1ec1214a85b6a8b81534cbc, type: 3}
  - {fileID: 21300000, guid: 4de3eaca9f965ee4894be010c8958eb4, type: 3}
  - {fileID: 21300000, guid: 0bba599305d674249a41d99dcf8c8276, type: 3}
