%YAML 1.1
%TAG !u! tag:unity3d.com,2011:
--- !u!1001 &2911505928537335893
PrefabInstance:
  m_ObjectHideFlags: 0
  serializedVersion: 2
  m_Modification:
    m_TransformParent: {fileID: 0}
    m_Modifications:
    - target: {fileID: 4813495318747024376, guid: da6022f602229ae40a3d63d1364eb620, type: 3}
      propertyPath: m_Enabled
      value: 1
      objectReference: {fileID: 0}
    - target: {fileID: 4813495318747024376, guid: da6022f602229ae40a3d63d1364eb620, type: 3}
      propertyPath: m_Materials.Array.data[0]
      value: 
      objectReference: {fileID: 2100000, guid: d47ff96cdcfddfb4a8660ea259c33798, type: 2}
    - target: {fileID: 7463982454345379824, guid: da6022f602229ae40a3d63d1364eb620, type: 3}
      propertyPath: m_RootOrder
      value: 0
      objectReference: {fileID: 0}
    - target: {fileID: 7463982454345379824, guid: da6022f602229ae40a3d63d1364eb620, type: 3}
      propertyPath: m_LocalPosition.x
      value: 1.25
      objectReference: {fileID: 0}
    - target: {fileID: 7463982454345379824, guid: da6022f602229ae40a3d63d1364eb620, type: 3}
      propertyPath: m_LocalPosition.y
      value: 0.5
      objectReference: {fileID: 0}
    - target: {fileID: 7463982454345379824, guid: da6022f602229ae40a3d63d1364eb620, type: 3}
      propertyPath: m_LocalPosition.z
      value: -4.17
      objectReference: {fileID: 0}
    - target: {fileID: 7463982454345379824, guid: da6022f602229ae40a3d63d1364eb620, type: 3}
      propertyPath: m_LocalRotation.w
      value: 1
      objectReference: {fileID: 0}
    - target: {fileID: 7463982454345379824, guid: da6022f602229ae40a3d63d1364eb620, type: 3}
      propertyPath: m_LocalRotation.x
      value: 0
      objectReference: {fileID: 0}
    - target: {fileID: 7463982454345379824, guid: da6022f602229ae40a3d63d1364eb620, type: 3}
      propertyPath: m_LocalRotation.y
      value: 0
      objectReference: {fileID: 0}
    - target: {fileID: 7463982454345379824, guid: da6022f602229ae40a3d63d1364eb620, type: 3}
      propertyPath: m_LocalRotation.z
      value: 0
      objectReference: {fileID: 0}
    - target: {fileID: 7463982454345379824, guid: da6022f602229ae40a3d63d1364eb620, type: 3}
      propertyPath: m_LocalEulerAnglesHint.x
      value: 0
      objectReference: {fileID: 0}
    - target: {fileID: 7463982454345379824, guid: da6022f602229ae40a3d63d1364eb620, type: 3}
      propertyPath: m_LocalEulerAnglesHint.y
      value: 0
      objectReference: {fileID: 0}
    - target: {fileID: 7463982454345379824, guid: da6022f602229ae40a3d63d1364eb620, type: 3}
      propertyPath: m_LocalEulerAnglesHint.z
      value: 0
      objectReference: {fileID: 0}
    - target: {fileID: 7844906421600744778, guid: da6022f602229ae40a3d63d1364eb620, type: 3}
      propertyPath: m_Name
      value: Body 5
      objectReference: {fileID: 0}
    - target: {fileID: 7844906421600744778, guid: da6022f602229ae40a3d63d1364eb620, type: 3}
      propertyPath: m_IsActive
      value: 1
      objectReference: {fileID: 0}
    m_RemovedComponents: []
  m_SourcePrefab: {fileID: 100100000, guid: da6022f602229ae40a3d63d1364eb620, type: 3}
